[
  {
    "ID":"athome",
    "trigger_type":101,
    "trigger_config":{
      "sensing_conditions":
      [{
        "mod":3,
        "relation":1,
        "value":"home"
      }],
      "subconfig":{
        "numberOfNotifications":8,
        "notificationMinInterval":60,
        "limitDailyCap":8
      }
    }
  },
  {
    "ID":"online",
    "trigger_type":101,
    "trigger_config":{
      "sensing_conditions":
      [{
        "mod":5,
        "relation":1,
        "value":"yes"
      }],
      "subconfig":{
        "numberOfNotifications":8,
        "notificationMinInterval":60,
        "limitDailyCap":8
      }
    }
  },
  {
    "ID":"random",
    "trigger_type":100,
    "trigger_config":{
      "subtype":10002,
      "subconfig":{
        "notificationMinInterval":60,
        "numberOfNotifications":8
      }
    }
  },
  {
    "ID":"oneoff",
    "trigger_type":100,
    "trigger_config":{
      "subtype":10000,
      "subconfig":{
        "delay":130000,
        "numberOfNotifications":10
      }
    }
  }
]